…
## Problem 1 (Trash Wheel Data)

``` r
clean_trash_data <- read_excel(
  "local_data_file/Trash-Wheel-Collection-Totals-7-2020-2.xlsx", 
  sheet = "Mr. Trash Wheel", range = "A2:N408") %>%
  janitor::clean_names() %>%
  filter(!str_detect(month, 'Total')) %>% 
  mutate(sports_balls = round(sports_balls))

clean_trash_data 
```

    ## # A tibble: 345 × 14
    ##    dumpster month  year date                weight_tons volume_cubic_yards
    ##       <dbl> <chr> <dbl> <dttm>                    <dbl>              <dbl>
    ##  1        1 May    2014 2014-05-16 00:00:00        4.31                 18
    ##  2        2 May    2014 2014-05-16 00:00:00        2.74                 13
    ##  3        3 May    2014 2014-05-16 00:00:00        3.45                 15
    ##  4        4 May    2014 2014-05-17 00:00:00        3.1                  15
    ##  5        5 May    2014 2014-05-17 00:00:00        4.06                 18
    ##  6        6 May    2014 2014-05-20 00:00:00        2.71                 13
    ##  7        7 May    2014 2014-05-21 00:00:00        1.91                  8
    ##  8        8 May    2014 2014-05-28 00:00:00        3.7                  16
    ##  9        9 June   2014 2014-06-05 00:00:00        2.52                 14
    ## 10       10 June   2014 2014-06-11 00:00:00        3.76                 18
    ## # … with 335 more rows, and 8 more variables: plastic_bottles <dbl>,
    ## #   polystyrene <dbl>, cigarette_butts <dbl>, glass_bottles <dbl>,
    ## #   grocery_bags <dbl>, chip_bags <dbl>, sports_balls <dbl>,
    ## #   homes_powered <dbl>
…
combined_precipitation <- bind_rows(clean_precipation_2018_data, 
                                    clean_precipation_2019_data) %>%
  mutate(month = month.name[month]) %>% 
  relocate(year)

combined_precipitation
```

    ## # A tibble: 24 × 3
    ##    year  month     total
    ##    <chr> <chr>     <dbl>
    ##  1 2018  January    0.94
    ##  2 2018  February   4.8 
    ##  3 2018  March      2.69
    ##  4 2018  April      4.69
    ##  5 2018  May        9.27
    ##  6 2018  June       4.77
    ##  7 2018  July      10.2 
    ##  8 2018  August     6.45
    ##  9 2018  September 10.5 
    ## 10 2018  October    2.12
    ## # … with 14 more rows
…
clean_pols_month_data <- pols_month_data %>%
  janitor::clean_names() %>% 
  separate("mon", c("year", "month", "day"), sep = "-") %>% 
  mutate(across(.cols = c("year", "month", "day"), as.integer)) %>% 
  mutate(month = month.name[month])  %>% 
  mutate(president = case_when(prez_dem == 1 ~ "dem",
                               prez_gop == 1 ~ "gop",
                               prez_gop == 2 ~ "gop")) %>%
    select(-day, -prez_dem, -prez_gop)
  

clean_pols_month_data
```

    ## # A tibble: 822 × 9
    ##     year month     gov_gop sen_gop rep_gop gov_dem sen_dem rep_dem president
    ##    <int> <chr>       <dbl>   <dbl>   <dbl>   <dbl>   <dbl>   <dbl> <chr>    
    ##  1  1947 January        23      51     253      23      45     198 dem      
    ##  2  1947 February       23      51     253      23      45     198 dem      
    ##  3  1947 March          23      51     253      23      45     198 dem      
    ##  4  1947 April          23      51     253      23      45     198 dem      
    ##  5  1947 May            23      51     253      23      45     198 dem      
    ##  6  1947 June           23      51     253      23      45     198 dem      
    ##  7  1947 July           23      51     253      23      45     198 dem      
    ##  8  1947 August         23      51     253      23      45     198 dem      
    ##  9  1947 September      23      51     253      23      45     198 dem      
    ## 10  1947 October        23      51     253      23      45     198 dem      
    ## # … with 812 more rows
…
clean_snp_data <- snp_data %>% 
  separate("date", c("month", "day", "year"), sep = "/") %>%
  mutate(across(.cols = c("year", "month", "day"), as.integer)) %>%
  relocate(year, month) %>%
  mutate(month = month.name[month]) %>% 
  mutate(year = as.numeric(year)) %>% 
  mutate(year = ifelse(year<21, year+2000, year+1900)) %>% 
  select(-day)

clean_snp_data
```

    ## # A tibble: 787 × 3
    ##     year month    close
    ##    <dbl> <chr>    <dbl>
    ##  1  2015 July     2080.
    ##  2  2015 June     2063.
    ##  3  2015 May      2107.
    ##  4  2015 April    2086.
    ##  5  2015 March    2068.
    ##  6  2015 February 2104.
    ##  7  2015 January  1995.
    ##  8  2014 December 2059.
    ##  9  2014 November 2068.
    ## 10  2014 October  2018.
    ## # … with 777 more rows
…
``` r
unemployment_data <- read_csv("local_data_file/unemployment.csv")

clean_unemployment_data <- unemployment_data %>% 
  pivot_longer(Jan:Dec, names_to = "month", values_to = "unemployment_percent") %>% 
  janitor::clean_names() %>% 
  mutate(across(.cols = c("year"), as.integer))  %>%
  mutate(month = match(month, month.abb)) %>%
  mutate(month = month.name[month])

clean_unemployment_data
```

    ## # A tibble: 816 × 3
    ##     year month     unemployment_percent
    ##    <int> <chr>                    <dbl>
    ##  1  1948 January                    3.4
    ##  2  1948 February                   3.8
    ##  3  1948 March                      4  
    ##  4  1948 April                      3.9
    ##  5  1948 May                        3.5
    ##  6  1948 June                       3.6
    ##  7  1948 July                       3.6
    ##  8  1948 August                     3.9
    ##  9  1948 September                  3.8
    ## 10  1948 October                    3.7
    ## # … with 806 more rows

\#Join the datasets by merging snp into pols, and merging unemployment
into the result.

``` r
merge1 <- left_join(clean_pols_month_data, clean_snp_data, by = c("year", "month"))

merge2 <- left_join(merge1, clean_unemployment_data, by = c("year", "month"))

merge2
```

    ## # A tibble: 822 × 11
    ##     year month   gov_gop sen_gop rep_gop gov_dem sen_dem rep_dem president close
    ##    <dbl> <chr>     <dbl>   <dbl>   <dbl>   <dbl>   <dbl>   <dbl> <chr>     <dbl>
    ##  1  1947 January      23      51     253      23      45     198 dem          NA
    ##  2  1947 Februa…      23      51     253      23      45     198 dem          NA
    ##  3  1947 March        23      51     253      23      45     198 dem          NA
    ##  4  1947 April        23      51     253      23      45     198 dem          NA
    ##  5  1947 May          23      51     253      23      45     198 dem          NA
    ##  6  1947 June         23      51     253      23      45     198 dem          NA
    ##  7  1947 July         23      51     253      23      45     198 dem          NA
    ##  8  1947 August       23      51     253      23      45     198 dem          NA
    ##  9  1947 Septem…      23      51     253      23      45     198 dem          NA
    ## 10  1947 October      23      51     253      23      45     198 dem          NA
    ## # … with 812 more rows, and 1 more variable: unemployment_percent <dbl>
…
clean_baby_names_data
```

    ## # A tibble: 24 × 6
    ##    year_of_birth gender ethnicity                  childs_first_name count  rank
    ##            <dbl> <chr>  <chr>                      <chr>             <dbl> <dbl>
    ##  1          2011 Female Asian And Pacific Islander olivia               89     4
    ##  2          2011 Female Black Non Hispanic         olivia               52    10
    ##  3          2011 Female Hispanic                   olivia               86    18
    ##  4          2011 Female White Non Hispanic         olivia              213     2
    ##  5          2012 Female Asian And Pacific Islander olivia              132     3
    ##  6          2012 Female Black Non Hispanic         olivia               58     8
    ##  7          2012 Female Hispanic                   olivia               77    22
    ##  8          2012 Female White Non Hispanic         olivia              198     4
    ##  9          2013 Female Asian And Pacific Islander olivia              109     3
    ## 10          2013 Female Black Non Hispanic         olivia               64     6
    ## # … with 14 more rows
…
